{
    "CL_-=_-=": "Duplicator\\Installer\\Package\\ArchiveDescriptor",
    "dup_type": "pro",
    "created": "2024-10-08 08:25:51",
    "version_dup": "4.5.16.4",
    "version_wp": "6.6.2",
    "version_db": "10.6.19",
    "version_php": "8.2.22",
    "version_os": "Linux",
    "blogname": "Wiki Ragnarok Online Vi\u1ec7t Nam",
    "exportOnlyDB": true,
    "secure_on": 0,
    "secure_pass": "",
    "dbhost": null,
    "dbname": null,
    "dbuser": null,
    "cpnl_host": null,
    "cpnl_user": null,
    "cpnl_pass": null,
    "cpnl_enable": null,
    "wp_tableprefix": "wp_",
    "mu_mode": 0,
    "mu_generation": 0,
    "mu_siteadmins": [
        "admin"
    ],
    "subsites": [
        {
            "CL_-=_-=": "Duplicator\\Installer\\Package\\DescriptorSubsite",
            "id": 1,
            "domain": "hahiu.com",
            "path": "\/",
            "blogname": "Wiki Ragnarok Online Vi\u1ec7t Nam",
            "blog_prefix": "wp_",
            "filteredTables": [],
            "adminUsers": [
                {
                    "CL_-=_-=": "stdClass",
                    "ID": "2",
                    "user_login": "laniakea",
                    "id": "2"
                },
                {
                    "CL_-=_-=": "stdClass",
                    "ID": "3",
                    "user_login": "teededung",
                    "id": "3"
                }
            ],
            "fullHomeUrl": "https:\/\/hahiu.com",
            "fullSiteUrl": "https:\/\/hahiu.com",
            "uploadPath": "wp-content\/uploads",
            "fullUploadPath": "\/home\/runcloud\/webapps\/hahiu\/wp-content\/uploads",
            "fullUploadSafePath": "\/home\/runcloud\/webapps\/hahiu\/wp-content\/uploads",
            "fullUploadUrl": "https:\/\/hahiu.com\/wp-content\/uploads",
            "filteredPaths": []
        }
    ],
    "main_site_id": 1,
    "mu_is_filtered": false,
    "license_limit": 0,
    "license_type": 0,
    "dbInfo": {
        "CL_-=_-=": "Duplicator\\Installer\\Package\\DescriptorDBInfo",
        "buildMode": "PHPCHUNKING",
        "charSetList": [
            "utf8mb4",
            "latin1"
        ],
        "collationList": [
            "latin1_swedish_ci",
            "utf8mb3_unicode_ci",
            "utf8mb4_general_ci",
            "utf8mb4_unicode_520_ci",
            "utf8mb4_unicode_ci"
        ],
        "engineList": [
            "InnoDB"
        ],
        "isTablesUpperCase": false,
        "lowerCaseTableNames": 0,
        "isNameUpperCase": false,
        "name": "hahiu",
        "tablesBaseCount": 46,
        "tablesFinalCount": 46,
        "muFilteredTableCount": 0,
        "tablesRowCount": 228917,
        "tablesSizeOnDisk": 71024640,
        "tablesList": {
            "wp_ajaxsearchpro": {
                "CL_-=_-=": "Duplicator\\Installer\\Package\\DescriptorDBTableInfo",
                "inaccurateRows": "0",
                "insertedRows": 1,
                "size": 16384
            },
            "wp_ajaxsearchpro_priorities": {
                "CL_-=_-=": "Duplicator\\Installer\\Package\\DescriptorDBTableInfo",
                "inaccurateRows": "0",
                "insertedRows": 0,
                "size": 32768
            },
            "wp_ajaxsearchpro_statistics": {
                "CL_-=_-=": "Duplicator\\Installer\\Package\\DescriptorDBTableInfo",
                "inaccurateRows": "0",
                "insertedRows": 0,
                "size": 16384
            },
            "wp_asp_index": {
                "CL_-=_-=": "Duplicator\\Installer\\Package\\DescriptorDBTableInfo",
                "inaccurateRows": "1189",
                "insertedRows": 1189,
                "size": 294912
            },
            "wp_asp_synonyms": {
                "CL_-=_-=": "Duplicator\\Installer\\Package\\DescriptorDBTableInfo",
                "inaccurateRows": "0",
                "insertedRows": 0,
                "size": 49152
            },
            "wp_commentmeta": {
                "CL_-=_-=": "Duplicator\\Installer\\Package\\DescriptorDBTableInfo",
                "inaccurateRows": "0",
                "insertedRows": 0,
                "size": 49152
            },
            "wp_comments": {
                "CL_-=_-=": "Duplicator\\Installer\\Package\\DescriptorDBTableInfo",
                "inaccurateRows": "0",
                "insertedRows": 0,
                "size": 98304
            },
            "wp_duplicator_backups": {
                "CL_-=_-=": "Duplicator\\Installer\\Package\\DescriptorDBTableInfo",
                "inaccurateRows": "0",
                "insertedRows": 1,
                "size": 180224
            },
            "wp_duplicator_entities": {
                "CL_-=_-=": "Duplicator\\Installer\\Package\\DescriptorDBTableInfo",
                "inaccurateRows": "12",
                "insertedRows": 12,
                "size": 196608
            },
            "wp_links": {
                "CL_-=_-=": "Duplicator\\Installer\\Package\\DescriptorDBTableInfo",
                "inaccurateRows": "0",
                "insertedRows": 0,
                "size": 32768
            },
            "wp_litespeed_crawler": {
                "CL_-=_-=": "Duplicator\\Installer\\Package\\DescriptorDBTableInfo",
                "inaccurateRows": "0",
                "insertedRows": 0,
                "size": 49152
            },
            "wp_litespeed_crawler_blacklist": {
                "CL_-=_-=": "Duplicator\\Installer\\Package\\DescriptorDBTableInfo",
                "inaccurateRows": "0",
                "insertedRows": 0,
                "size": 49152
            },
            "wp_litespeed_url": {
                "CL_-=_-=": "Duplicator\\Installer\\Package\\DescriptorDBTableInfo",
                "inaccurateRows": "0",
                "insertedRows": 0,
                "size": 49152
            },
            "wp_litespeed_url_file": {
                "CL_-=_-=": "Duplicator\\Installer\\Package\\DescriptorDBTableInfo",
                "inaccurateRows": "0",
                "insertedRows": 0,
                "size": 98304
            },
            "wp_options": {
                "CL_-=_-=": "Duplicator\\Installer\\Package\\DescriptorDBTableInfo",
                "inaccurateRows": "1237",
                "insertedRows": 1252,
                "size": 3604480
            },
            "wp_postmeta": {
                "CL_-=_-=": "Duplicator\\Installer\\Package\\DescriptorDBTableInfo",
                "inaccurateRows": "211871",
                "insertedRows": 212751,
                "size": 56262656
            },
            "wp_posts": {
                "CL_-=_-=": "Duplicator\\Installer\\Package\\DescriptorDBTableInfo",
                "inaccurateRows": "6896",
                "insertedRows": 6164,
                "size": 4833280
            },
            "wp_redirection_404": {
                "CL_-=_-=": "Duplicator\\Installer\\Package\\DescriptorDBTableInfo",
                "inaccurateRows": "0",
                "insertedRows": 0,
                "size": 65536
            },
            "wp_redirection_groups": {
                "CL_-=_-=": "Duplicator\\Installer\\Package\\DescriptorDBTableInfo",
                "inaccurateRows": "2",
                "insertedRows": 2,
                "size": 49152
            },
            "wp_redirection_items": {
                "CL_-=_-=": "Duplicator\\Installer\\Package\\DescriptorDBTableInfo",
                "inaccurateRows": "24",
                "insertedRows": 24,
                "size": 114688
            },
            "wp_redirection_logs": {
                "CL_-=_-=": "Duplicator\\Installer\\Package\\DescriptorDBTableInfo",
                "inaccurateRows": "0",
                "insertedRows": 0,
                "size": 65536
            },
            "wp_revslider_css": {
                "CL_-=_-=": "Duplicator\\Installer\\Package\\DescriptorDBTableInfo",
                "inaccurateRows": "109",
                "insertedRows": 109,
                "size": 147456
            },
            "wp_revslider_css_bkp": {
                "CL_-=_-=": "Duplicator\\Installer\\Package\\DescriptorDBTableInfo",
                "inaccurateRows": "109",
                "insertedRows": 109,
                "size": 147456
            },
            "wp_revslider_layer_animations": {
                "CL_-=_-=": "Duplicator\\Installer\\Package\\DescriptorDBTableInfo",
                "inaccurateRows": "0",
                "insertedRows": 0,
                "size": 16384
            },
            "wp_revslider_layer_animations_bkp": {
                "CL_-=_-=": "Duplicator\\Installer\\Package\\DescriptorDBTableInfo",
                "inaccurateRows": "0",
                "insertedRows": 0,
                "size": 16384
            },
            "wp_revslider_navigations": {
                "CL_-=_-=": "Duplicator\\Installer\\Package\\DescriptorDBTableInfo",
                "inaccurateRows": "0",
                "insertedRows": 0,
                "size": 16384
            },
            "wp_revslider_navigations_bkp": {
                "CL_-=_-=": "Duplicator\\Installer\\Package\\DescriptorDBTableInfo",
                "inaccurateRows": "0",
                "insertedRows": 0,
                "size": 16384
            },
            "wp_revslider_sliders": {
                "CL_-=_-=": "Duplicator\\Installer\\Package\\DescriptorDBTableInfo",
                "inaccurateRows": "0",
                "insertedRows": 1,
                "size": 32768
            },
            "wp_revslider_sliders_bkp": {
                "CL_-=_-=": "Duplicator\\Installer\\Package\\DescriptorDBTableInfo",
                "inaccurateRows": "0",
                "insertedRows": 1,
                "size": 32768
            },
            "wp_revslider_slides": {
                "CL_-=_-=": "Duplicator\\Installer\\Package\\DescriptorDBTableInfo",
                "inaccurateRows": "0",
                "insertedRows": 1,
                "size": 32768
            },
            "wp_revslider_slides_bkp": {
                "CL_-=_-=": "Duplicator\\Installer\\Package\\DescriptorDBTableInfo",
                "inaccurateRows": "0",
                "insertedRows": 1,
                "size": 32768
            },
            "wp_revslider_static_slides": {
                "CL_-=_-=": "Duplicator\\Installer\\Package\\DescriptorDBTableInfo",
                "inaccurateRows": "0",
                "insertedRows": 1,
                "size": 32768
            },
            "wp_revslider_static_slides_bkp": {
                "CL_-=_-=": "Duplicator\\Installer\\Package\\DescriptorDBTableInfo",
                "inaccurateRows": "0",
                "insertedRows": 0,
                "size": 32768
            },
            "wp_smush_dir_images": {
                "CL_-=_-=": "Duplicator\\Installer\\Package\\DescriptorDBTableInfo",
                "inaccurateRows": "0",
                "insertedRows": 0,
                "size": 49152
            },
            "wp_termmeta": {
                "CL_-=_-=": "Duplicator\\Installer\\Package\\DescriptorDBTableInfo",
                "inaccurateRows": "40",
                "insertedRows": 40,
                "size": 49152
            },
            "wp_terms": {
                "CL_-=_-=": "Duplicator\\Installer\\Package\\DescriptorDBTableInfo",
                "inaccurateRows": "160",
                "insertedRows": 160,
                "size": 49152
            },
            "wp_term_relationships": {
                "CL_-=_-=": "Duplicator\\Installer\\Package\\DescriptorDBTableInfo",
                "inaccurateRows": "1000",
                "insertedRows": 976,
                "size": 131072
            },
            "wp_term_taxonomy": {
                "CL_-=_-=": "Duplicator\\Installer\\Package\\DescriptorDBTableInfo",
                "inaccurateRows": "160",
                "insertedRows": 160,
                "size": 49152
            },
            "wp_usermeta": {
                "CL_-=_-=": "Duplicator\\Installer\\Package\\DescriptorDBTableInfo",
                "inaccurateRows": "157",
                "insertedRows": 157,
                "size": 49152
            },
            "wp_users": {
                "CL_-=_-=": "Duplicator\\Installer\\Package\\DescriptorDBTableInfo",
                "inaccurateRows": "4",
                "insertedRows": 5,
                "size": 65536
            },
            "wp_yoast_indexable": {
                "CL_-=_-=": "Duplicator\\Installer\\Package\\DescriptorDBTableInfo",
                "inaccurateRows": "1538",
                "insertedRows": 1606,
                "size": 3227648
            },
            "wp_yoast_indexable_hierarchy": {
                "CL_-=_-=": "Duplicator\\Installer\\Package\\DescriptorDBTableInfo",
                "inaccurateRows": "1608",
                "insertedRows": 1608,
                "size": 278528
            },
            "wp_yoast_migrations": {
                "CL_-=_-=": "Duplicator\\Installer\\Package\\DescriptorDBTableInfo",
                "inaccurateRows": "23",
                "insertedRows": 24,
                "size": 32768
            },
            "wp_yoast_primary_term": {
                "CL_-=_-=": "Duplicator\\Installer\\Package\\DescriptorDBTableInfo",
                "inaccurateRows": "298",
                "insertedRows": 286,
                "size": 81920
            },
            "wp_yoast_seo_links": {
                "CL_-=_-=": "Duplicator\\Installer\\Package\\DescriptorDBTableInfo",
                "inaccurateRows": "198",
                "insertedRows": 197,
                "size": 81920
            },
            "wp_yoast_seo_meta": {
                "CL_-=_-=": "Duplicator\\Installer\\Package\\DescriptorDBTableInfo",
                "inaccurateRows": "2282",
                "insertedRows": 2282,
                "size": 114688
            }
        },
        "dbEngine": "MariaDB",
        "version": "10.6.19",
        "versionComment": "mariadb.org binary distribution",
        "viewCount": 0,
        "procCount": 0,
        "funcCount": 0,
        "triggerList": []
    },
    "packInfo": {
        "CL_-=_-=": "Duplicator\\Installer\\Package\\DescriptorPackageInfo",
        "packageId": 168,
        "packageName": "20241008_wikiragnarokonlinevietnam",
        "packageHash": "3c177d4-08082547",
        "secondaryHash": "c7ddb44-08082547"
    },
    "fileInfo": {
        "CL_-=_-=": "Duplicator\\Installer\\Package\\DescriptorFileInfo",
        "dirCount": 0,
        "fileCount": 0,
        "size": 28069405
    },
    "wpInfo": {
        "CL_-=_-=": "Duplicator\\Installer\\Package\\DescriptorWpInfo",
        "version": "6.6.2",
        "is_multisite": false,
        "network_id": 1,
        "targetRoot": "\/home\/runcloud\/webapps\/hahiu",
        "targetPaths": [
            "\/home\/runcloud\/webapps\/hahiu"
        ],
        "adminUsers": [
            {
                "CL_-=_-=": "stdClass",
                "ID": "2",
                "user_login": "laniakea",
                "id": "2"
            },
            {
                "CL_-=_-=": "stdClass",
                "ID": "3",
                "user_login": "teededung",
                "id": "3"
            }
        ],
        "configs": {
            "CL_-=_-=": "stdClass",
            "defines": {
                "CL_-=_-=": "stdClass",
                "ABSPATH": {
                    "CL_-=_-=": "stdClass",
                    "value": "\/home\/runcloud\/webapps\/hahiu\/",
                    "inWpConfig": true
                },
                "DB_CHARSET": {
                    "CL_-=_-=": "stdClass",
                    "value": "utf8mb4",
                    "inWpConfig": true
                },
                "DB_COLLATE": {
                    "CL_-=_-=": "stdClass",
                    "value": "",
                    "inWpConfig": true
                },
                "AUTH_KEY": {
                    "CL_-=_-=": "stdClass",
                    "value": "XS=opzZsVVS|>`K\/b9`||[x$|<2ya6X~-@B<]}-QL<2#EjML#izwmN.^]i5|nbDc",
                    "inWpConfig": true
                },
                "SECURE_AUTH_KEY": {
                    "CL_-=_-=": "stdClass",
                    "value": "z,l| `8!G!}0Q_KFgWbi(F3L>hq&yCu~)6-HcOR&-Rj2-p1&HFK+)$XLY-hP s|M",
                    "inWpConfig": true
                },
                "LOGGED_IN_KEY": {
                    "CL_-=_-=": "stdClass",
                    "value": "{enaG`+P;fMZ0TN.+,<q-t[]v=H3P]1gp =n[5ZlH4c@>1ZN`0y),)c;XGSm;7W[",
                    "inWpConfig": true
                },
                "NONCE_KEY": {
                    "CL_-=_-=": "stdClass",
                    "value": "%~fQMC0HCQKc;B$-#R&*Sk+(|3{r7}|qks$lkq<y|deoZ{xJ?BV@2E5K88<\/&%8n",
                    "inWpConfig": true
                },
                "AUTH_SALT": {
                    "CL_-=_-=": "stdClass",
                    "value": "pb2DSW)?tcs ubs]q_-AhD#=(Z#H\/- z=m|&OTSPi~[.n[bi\/27tzy.&lC9Y?Z@k",
                    "inWpConfig": true
                },
                "SECURE_AUTH_SALT": {
                    "CL_-=_-=": "stdClass",
                    "value": "5:4p#zZ4[>T5bvR*T,3WhzKSx5`Q-F[dNz0,Gk&lr Y]@k8^t3A5)\/}=Uji[0;!,",
                    "inWpConfig": true
                },
                "LOGGED_IN_SALT": {
                    "CL_-=_-=": "stdClass",
                    "value": "OG,FdDp,X(()M_UV_l1u@~5h|$aty*7r+O-|jDG+|D\/%Tpa:}3U:SO_zH:iO\/At*",
                    "inWpConfig": true
                },
                "NONCE_SALT": {
                    "CL_-=_-=": "stdClass",
                    "value": "ZY`R.tm%~b>BomuTy3PwjSQAOGD-<1+eBHzt8SMvHCZcs]XRJ!|#,|~gHRS#jM*t",
                    "inWpConfig": true
                },
                "WP_CONTENT_DIR": {
                    "CL_-=_-=": "stdClass",
                    "value": "\/home\/runcloud\/webapps\/hahiu\/wp-content",
                    "inWpConfig": false
                },
                "WP_CONTENT_URL": {
                    "CL_-=_-=": "stdClass",
                    "value": "https:\/\/hahiu.com\/wp-content",
                    "inWpConfig": false
                },
                "WP_PLUGIN_DIR": {
                    "CL_-=_-=": "stdClass",
                    "value": "\/home\/runcloud\/webapps\/hahiu\/wp-content\/plugins",
                    "inWpConfig": true
                },
                "WP_PLUGIN_URL": {
                    "CL_-=_-=": "stdClass",
                    "value": "https:\/\/hahiu.com\/wp-content\/plugins",
                    "inWpConfig": false
                },
                "PLUGINDIR": {
                    "CL_-=_-=": "stdClass",
                    "value": "wp-content\/plugins",
                    "inWpConfig": false
                },
                "AUTOSAVE_INTERVAL": {
                    "CL_-=_-=": "stdClass",
                    "value": 60,
                    "inWpConfig": false
                },
                "WP_POST_REVISIONS": {
                    "CL_-=_-=": "stdClass",
                    "value": 0,
                    "inWpConfig": true
                },
                "COOKIE_DOMAIN": {
                    "CL_-=_-=": "stdClass",
                    "value": "",
                    "inWpConfig": false
                },
                "MULTISITE": {
                    "CL_-=_-=": "stdClass",
                    "value": false,
                    "inWpConfig": false
                },
                "WP_DEBUG": {
                    "CL_-=_-=": "stdClass",
                    "value": false,
                    "inWpConfig": true
                },
                "SCRIPT_DEBUG": {
                    "CL_-=_-=": "stdClass",
                    "value": false,
                    "inWpConfig": false
                },
                "WP_DEBUG_LOG": {
                    "CL_-=_-=": "stdClass",
                    "value": false,
                    "inWpConfig": true
                },
                "WP_DEBUG_DISPLAY": {
                    "CL_-=_-=": "stdClass",
                    "value": true,
                    "inWpConfig": false
                },
                "WP_MEMORY_LIMIT": {
                    "CL_-=_-=": "stdClass",
                    "value": "128M",
                    "inWpConfig": true
                },
                "WP_MAX_MEMORY_LIMIT": {
                    "CL_-=_-=": "stdClass",
                    "value": "256M",
                    "inWpConfig": false
                },
                "WP_CACHE": {
                    "CL_-=_-=": "stdClass",
                    "value": true,
                    "inWpConfig": true
                },
                "WP_LANG_DIR": {
                    "CL_-=_-=": "stdClass",
                    "value": "\/home\/runcloud\/webapps\/hahiu\/wp-content\/languages",
                    "inWpConfig": false
                },
                "FS_CHMOD_DIR": {
                    "CL_-=_-=": "stdClass",
                    "value": 493,
                    "inWpConfig": false
                },
                "FS_CHMOD_FILE": {
                    "CL_-=_-=": "stdClass",
                    "value": 420,
                    "inWpConfig": false
                },
                "FS_METHOD": {
                    "CL_-=_-=": "stdClass",
                    "value": "direct",
                    "inWpConfig": true
                },
                "WP_CRON_LOCK_TIMEOUT": {
                    "CL_-=_-=": "stdClass",
                    "value": 60,
                    "inWpConfig": false
                },
                "COOKIEPATH": {
                    "CL_-=_-=": "stdClass",
                    "value": "\/",
                    "inWpConfig": false
                },
                "SITECOOKIEPATH": {
                    "CL_-=_-=": "stdClass",
                    "value": "\/",
                    "inWpConfig": false
                },
                "ADMIN_COOKIE_PATH": {
                    "CL_-=_-=": "stdClass",
                    "value": "\/wp-admin",
                    "inWpConfig": false
                },
                "PLUGINS_COOKIE_PATH": {
                    "CL_-=_-=": "stdClass",
                    "value": "\/wp-content\/plugins",
                    "inWpConfig": false
                },
                "TEMPLATEPATH": {
                    "CL_-=_-=": "stdClass",
                    "value": "\/home\/runcloud\/webapps\/hahiu\/wp-content\/themes\/laniakea-ro-wiki",
                    "inWpConfig": false
                },
                "STYLESHEETPATH": {
                    "CL_-=_-=": "stdClass",
                    "value": "\/home\/runcloud\/webapps\/hahiu\/wp-content\/themes\/laniakea-ro-wiki",
                    "inWpConfig": false
                },
                "EMPTY_TRASH_DAYS": {
                    "CL_-=_-=": "stdClass",
                    "value": 30,
                    "inWpConfig": false
                },
                "FORCE_SSL_ADMIN": {
                    "CL_-=_-=": "stdClass",
                    "value": true,
                    "inWpConfig": false
                },
                "WPMU_PLUGIN_DIR": {
                    "CL_-=_-=": "stdClass",
                    "value": "\/home\/runcloud\/webapps\/hahiu\/wp-content\/mu-plugins",
                    "inWpConfig": true
                },
                "WPMU_PLUGIN_URL": {
                    "CL_-=_-=": "stdClass",
                    "value": "https:\/\/hahiu.com\/wp-content\/mu-plugins",
                    "inWpConfig": false
                },
                "MUPLUGINDIR": {
                    "CL_-=_-=": "stdClass",
                    "value": "wp-content\/mu-plugins",
                    "inWpConfig": false
                }
            },
            "realValues": {
                "CL_-=_-=": "stdClass",
                "siteUrl": "https:\/\/hahiu.com",
                "homeUrl": "https:\/\/hahiu.com",
                "loginUrl": "https:\/\/hahiu.com\/wp-login.php",
                "contentUrl": "https:\/\/hahiu.com\/wp-content",
                "uploadBaseUrl": "https:\/\/hahiu.com\/wp-content\/uploads",
                "pluginsUrl": "https:\/\/hahiu.com\/wp-content\/plugins",
                "mupluginsUrl": "https:\/\/hahiu.com\/wp-content\/mu-plugins",
                "themesUrl": "https:\/\/hahiu.com\/wp-content\/themes",
                "originalPaths": {
                    "CL_-=_-=": "stdClass",
                    "home": "\/home\/runcloud\/webapps\/hahiu",
                    "abs": "\/home\/runcloud\/webapps\/hahiu",
                    "wpconfig": "\/home\/runcloud\/webapps\/hahiu",
                    "wpcontent": "\/home\/runcloud\/webapps\/hahiu\/wp-content",
                    "uploads": "\/home\/runcloud\/webapps\/hahiu\/wp-content\/uploads",
                    "plugins": "\/home\/runcloud\/webapps\/hahiu\/wp-content\/plugins",
                    "muplugins": "\/home\/runcloud\/webapps\/hahiu\/wp-content\/mu-plugins",
                    "themes": "\/home\/runcloud\/webapps\/hahiu\/wp-content\/themes"
                },
                "archivePaths": {
                    "CL_-=_-=": "stdClass",
                    "home": "\/home\/runcloud\/webapps\/hahiu",
                    "abs": "\/home\/runcloud\/webapps\/hahiu",
                    "wpconfig": "\/home\/runcloud\/webapps\/hahiu",
                    "wpcontent": "\/home\/runcloud\/webapps\/hahiu\/wp-content",
                    "uploads": "\/home\/runcloud\/webapps\/hahiu\/wp-content\/uploads",
                    "plugins": "\/home\/runcloud\/webapps\/hahiu\/wp-content\/plugins",
                    "muplugins": "\/home\/runcloud\/webapps\/hahiu\/wp-content\/mu-plugins",
                    "themes": "\/home\/runcloud\/webapps\/hahiu\/wp-content\/themes"
                }
            }
        },
        "plugins": {
            "advanced-custom-fields-pro\/acf.php": {
                "CL_-=_-=": "Duplicator\\Installer\\Package\\DescriptorPlugin",
                "slug": "advanced-custom-fields-pro\/acf.php",
                "name": "Advanced Custom Fields PRO",
                "version": "6.3.3",
                "pluginURI": "https:\/\/www.advancedcustomfields.com",
                "author": "WP Engine",
                "authorURI": "https:\/\/wpengine.com\/?utm_source=wordpress.org&utm_medium=referral&utm_campaign=plugin_directory&utm_content=advanced_custom_fields",
                "description": "Customize WordPress with powerful, professional and intuitive fields.",
                "title": "Advanced Custom Fields PRO",
                "networkActive": false,
                "active": true,
                "mustUse": false,
                "dropIns": false,
                "isInArchive": false
            },
            "ajax-search-pro\/ajax-search-pro.php": {
                "CL_-=_-=": "Duplicator\\Installer\\Package\\DescriptorPlugin",
                "slug": "ajax-search-pro\/ajax-search-pro.php",
                "name": "Ajax Search Pro",
                "version": "4.26.7",
                "pluginURI": "https:\/\/ajaxsearchpro.com",
                "author": "Ernest Marcinko",
                "authorURI": "https:\/\/codecanyon.net\/user\/wpdreams",
                "description": "The most powerful live search engine for WordPress.",
                "title": "Ajax Search Pro",
                "networkActive": false,
                "active": true,
                "mustUse": false,
                "dropIns": false,
                "isInArchive": false
            },
            "disable-comments\/disable-comments.php": {
                "CL_-=_-=": "Duplicator\\Installer\\Package\\DescriptorPlugin",
                "slug": "disable-comments\/disable-comments.php",
                "name": "Disable Comments",
                "version": "2.4.6",
                "pluginURI": "https:\/\/wordpress.org\/plugins\/disable-comments\/",
                "author": "WPDeveloper",
                "authorURI": "https:\/\/wpdeveloper.com",
                "description": "Allows administrators to globally disable comments on their site. Comments can be disabled according to post type. You could bulk delete comments using Tools.",
                "title": "Disable Comments",
                "networkActive": false,
                "active": true,
                "mustUse": false,
                "dropIns": false,
                "isInArchive": false
            },
            "duplicate-page\/duplicatepage.php": {
                "CL_-=_-=": "Duplicator\\Installer\\Package\\DescriptorPlugin",
                "slug": "duplicate-page\/duplicatepage.php",
                "name": "Duplicate Page",
                "version": "4.5.4",
                "pluginURI": "https:\/\/wordpress.org\/plugins\/duplicate-page\/",
                "author": "mndpsingh287",
                "authorURI": "https:\/\/profiles.wordpress.org\/mndpsingh287\/",
                "description": "Duplicate Posts, Pages and Custom Posts using single click.",
                "title": "Duplicate Page",
                "networkActive": false,
                "active": true,
                "mustUse": false,
                "dropIns": false,
                "isInArchive": false
            },
            "duplicator-pro\/duplicator-pro.php": {
                "CL_-=_-=": "Duplicator\\Installer\\Package\\DescriptorPlugin",
                "slug": "duplicator-pro\/duplicator-pro.php",
                "name": "Duplicator Pro",
                "version": "4.5.16.4",
                "pluginURI": "https:\/\/duplicator.com\/",
                "author": "Duplicator",
                "authorURI": "https:\/\/duplicator.com\/",
                "description": "Create, schedule and transfer a copy of your WordPress files and database. Duplicate and move a site from one location to another quickly.",
                "title": "Duplicator Pro",
                "networkActive": false,
                "active": true,
                "mustUse": false,
                "dropIns": false,
                "isInArchive": false
            },
            "force-regenerate-thumbnails\/force-regenerate-thumbnails.php": {
                "CL_-=_-=": "Duplicator\\Installer\\Package\\DescriptorPlugin",
                "slug": "force-regenerate-thumbnails\/force-regenerate-thumbnails.php",
                "name": "Force Regenerate Thumbnails",
                "version": "2.2.0",
                "pluginURI": "https:\/\/wordpress.org\/plugins\/force-regenerate-thumbnails\/",
                "author": "Exactly WWW",
                "authorURI": "http:\/\/ewww.io\/about\/",
                "description": "Delete and REALLY force the regeneration of thumbnails.",
                "title": "Force Regenerate Thumbnails",
                "networkActive": false,
                "active": false,
                "mustUse": false,
                "dropIns": false,
                "isInArchive": false
            },
            "intuitive-custom-post-order\/intuitive-custom-post-order.php": {
                "CL_-=_-=": "Duplicator\\Installer\\Package\\DescriptorPlugin",
                "slug": "intuitive-custom-post-order\/intuitive-custom-post-order.php",
                "name": "Intuitive Custom Post Order",
                "version": "3.1.5.1",
                "pluginURI": "http:\/\/hijiriworld.com\/web\/plugins\/intuitive-custom-post-order\/",
                "author": "hijiri",
                "authorURI": "http:\/\/hijiriworld.com\/web\/",
                "description": "Intuitively, Order Items (Posts, Pages, ,Custom Post Types, Custom Taxonomies, Sites) using a Drag and Drop Sortable JavaScript.",
                "title": "Intuitive Custom Post Order",
                "networkActive": false,
                "active": true,
                "mustUse": false,
                "dropIns": false,
                "isInArchive": false
            },
            "litespeed-cache\/litespeed-cache.php": {
                "CL_-=_-=": "Duplicator\\Installer\\Package\\DescriptorPlugin",
                "slug": "litespeed-cache\/litespeed-cache.php",
                "name": "LiteSpeed Cache",
                "version": "6.5.1",
                "pluginURI": "https:\/\/www.litespeedtech.com\/products\/cache-plugins\/wordpress-acceleration",
                "author": "LiteSpeed Technologies",
                "authorURI": "https:\/\/www.litespeedtech.com",
                "description": "High-performance page caching and site optimization from LiteSpeed",
                "title": "LiteSpeed Cache",
                "networkActive": false,
                "active": true,
                "mustUse": false,
                "dropIns": false,
                "isInArchive": false
            },
            "redirection\/redirection.php": {
                "CL_-=_-=": "Duplicator\\Installer\\Package\\DescriptorPlugin",
                "slug": "redirection\/redirection.php",
                "name": "Redirection",
                "version": "5.5.0",
                "pluginURI": "https:\/\/redirection.me\/",
                "author": "John Godley",
                "authorURI": "",
                "description": "Manage all your 301 redirects and monitor 404 errors",
                "title": "Redirection",
                "networkActive": false,
                "active": true,
                "mustUse": false,
                "dropIns": false,
                "isInArchive": false
            },
            "revslider\/revslider.php": {
                "CL_-=_-=": "Duplicator\\Installer\\Package\\DescriptorPlugin",
                "slug": "revslider\/revslider.php",
                "name": "Slider Revolution",
                "version": "6.6.18",
                "pluginURI": "https:\/\/www.sliderrevolution.com\/?utm_source=admin&utm_medium=button&utm_campaign=srusers&utm_content=info",
                "author": "ThemePunch",
                "authorURI": "https:\/\/themepunch.com\/?utm_source=admin&utm_medium=button&utm_campaign=srusers&utm_content=info",
                "description": "Slider Revolution - More than just a WordPress Slider",
                "title": "Slider Revolution",
                "networkActive": false,
                "active": true,
                "mustUse": false,
                "dropIns": false,
                "isInArchive": false
            },
            "revslider-paintbrush-addon\/revslider-paintbrush-addon.php": {
                "CL_-=_-=": "Duplicator\\Installer\\Package\\DescriptorPlugin",
                "slug": "revslider-paintbrush-addon\/revslider-paintbrush-addon.php",
                "name": "Slider Revolution Paint-Brush Add-On",
                "version": "2.1.9",
                "pluginURI": "http:\/\/www.themepunch.com\/",
                "author": "ThemePunch",
                "authorURI": "http:\/\/themepunch.com",
                "description": "Draw images onto your slides on-mouse-move",
                "title": "Slider Revolution Paint-Brush Add-On",
                "networkActive": false,
                "active": false,
                "mustUse": false,
                "dropIns": false,
                "isInArchive": false
            },
            "wp-smush-pro\/wp-smush.php": {
                "CL_-=_-=": "Duplicator\\Installer\\Package\\DescriptorPlugin",
                "slug": "wp-smush-pro\/wp-smush.php",
                "name": "Smush Pro",
                "version": "3.16.1",
                "pluginURI": "http:\/\/wpmudev.com\/project\/wp-smush-pro\/",
                "author": "WPMU DEV",
                "authorURI": "https:\/\/wpmudev.com\/",
                "description": "Reduce image file sizes, improve performance and boost your SEO using the <a href=\"https:\/\/wpmudev.com\/\">WPMU DEV<\/a> WordPress Smush API.",
                "title": "Smush Pro",
                "networkActive": false,
                "active": true,
                "mustUse": false,
                "dropIns": false,
                "isInArchive": false
            },
            "wp-pagenavi\/wp-pagenavi.php": {
                "CL_-=_-=": "Duplicator\\Installer\\Package\\DescriptorPlugin",
                "slug": "wp-pagenavi\/wp-pagenavi.php",
                "name": "WP-PageNavi",
                "version": "2.94.1",
                "pluginURI": "https:\/\/lesterchan.net\/portfolio\/programming\/php\/",
                "author": "Lester 'GaMerZ' Chan",
                "authorURI": "https:\/\/lesterchan.net",
                "description": "Adds a more advanced paging navigation to your WordPress blog",
                "title": "WP-PageNavi",
                "networkActive": false,
                "active": true,
                "mustUse": false,
                "dropIns": false,
                "isInArchive": false
            },
            "wp-scss\/wp-scss.php": {
                "CL_-=_-=": "Duplicator\\Installer\\Package\\DescriptorPlugin",
                "slug": "wp-scss\/wp-scss.php",
                "name": "WP-SCSS",
                "version": "4.0.2",
                "pluginURI": "https:\/\/github.com\/ConnectThink\/WP-SCSS",
                "author": "Connect Think",
                "authorURI": "http:\/\/connectthink.com",
                "description": "Compiles scss files live on WordPress.",
                "title": "WP-SCSS",
                "networkActive": false,
                "active": true,
                "mustUse": false,
                "dropIns": false,
                "isInArchive": false
            },
            "wpmudev-updates\/update-notifications.php": {
                "CL_-=_-=": "Duplicator\\Installer\\Package\\DescriptorPlugin",
                "slug": "wpmudev-updates\/update-notifications.php",
                "name": "WPMU DEV Dashboard",
                "version": "4.11.26",
                "pluginURI": "https:\/\/wpmudev.com\/project\/wpmu-dev-dashboard\/",
                "author": "WPMU DEV",
                "authorURI": "https:\/\/wpmudev.com\/",
                "description": "Brings the powers of WPMU DEV directly to you. It will revolutionize how you use WordPress. Activate now!",
                "title": "WPMU DEV Dashboard",
                "networkActive": false,
                "active": true,
                "mustUse": false,
                "dropIns": false,
                "isInArchive": false
            },
            "wp-sync-db\/wp-sync-db.php": {
                "CL_-=_-=": "Duplicator\\Installer\\Package\\DescriptorPlugin",
                "slug": "wp-sync-db\/wp-sync-db.php",
                "name": "WP Sync DB",
                "version": "1.5",
                "pluginURI": "",
                "author": "Sean Lang",
                "authorURI": "http:\/\/slang.cx",
                "description": "Export, push, and pull to migrate your WordPress databases.",
                "title": "WP Sync DB",
                "networkActive": false,
                "active": false,
                "mustUse": false,
                "dropIns": false,
                "isInArchive": false
            },
            "wp-sync-db-media-files\/wp-sync-db-media-files.php": {
                "CL_-=_-=": "Duplicator\\Installer\\Package\\DescriptorPlugin",
                "slug": "wp-sync-db-media-files\/wp-sync-db-media-files.php",
                "name": "WP Sync DB Media Files",
                "version": "1.1.4b1",
                "pluginURI": "",
                "author": "Sean Lang",
                "authorURI": "http:\/\/slang.cx",
                "description": "An extension of WP Sync DB that allows the migration of media files.",
                "title": "WP Sync DB Media Files",
                "networkActive": false,
                "active": false,
                "mustUse": false,
                "dropIns": false,
                "isInArchive": false
            },
            "wordpress-seo\/wp-seo.php": {
                "CL_-=_-=": "Duplicator\\Installer\\Package\\DescriptorPlugin",
                "slug": "wordpress-seo\/wp-seo.php",
                "name": "Yoast SEO",
                "version": "23.5",
                "pluginURI": "https:\/\/yoa.st\/1uj",
                "author": "Team Yoast",
                "authorURI": "https:\/\/yoa.st\/1uk",
                "description": "The first true all-in-one SEO solution for WordPress, including on-page content analysis, XML sitemaps and much more.",
                "title": "Yoast SEO",
                "networkActive": false,
                "active": true,
                "mustUse": false,
                "dropIns": false,
                "isInArchive": false
            },
            "advanced-cache.php": {
                "CL_-=_-=": "Duplicator\\Installer\\Package\\DescriptorPlugin",
                "slug": "advanced-cache.php",
                "name": "advanced-cache.php",
                "version": "",
                "pluginURI": "",
                "author": "",
                "authorURI": "",
                "description": "",
                "title": "",
                "networkActive": false,
                "active": false,
                "mustUse": false,
                "dropIns": true,
                "isInArchive": false
            },
            "object-cache.php": {
                "CL_-=_-=": "Duplicator\\Installer\\Package\\DescriptorPlugin",
                "slug": "object-cache.php",
                "name": "LiteSpeed Cache - Object Cache (Drop-in)",
                "version": "6.3",
                "pluginURI": "https:\/\/www.litespeedtech.com\/products\/cache-plugins\/wordpress-acceleration",
                "author": "LiteSpeed Technologies",
                "authorURI": "https:\/\/www.litespeedtech.com",
                "description": "High-performance page caching and site optimization from LiteSpeed.",
                "title": "LiteSpeed Cache - Object Cache (Drop-in)",
                "networkActive": false,
                "active": false,
                "mustUse": false,
                "dropIns": true,
                "isInArchive": false
            }
        },
        "themes": {
            "laniakea-ro-wiki": {
                "CL_-=_-=": "Duplicator\\Installer\\Package\\DescriptorTheme",
                "slug": "laniakea-ro-wiki",
                "themeName": "Laniakea RO wiki",
                "version": "2.0",
                "themeURI": "",
                "parentTheme": false,
                "template": "laniakea-ro-wiki",
                "stylesheet": "laniakea-ro-wiki",
                "description": "Laniakea RO wiki | Last updated: 01\/04\/2019",
                "author": "Tuan Anh",
                "authorURI": "",
                "tags": [],
                "isAllowed": true,
                "isActive": true,
                "defaultTheme": false
            },
            "twentytwentyfour": {
                "CL_-=_-=": "Duplicator\\Installer\\Package\\DescriptorTheme",
                "slug": "twentytwentyfour",
                "themeName": "Twenty Twenty-Four",
                "version": "1.2",
                "themeURI": "https:\/\/wordpress.org\/themes\/twentytwentyfour\/",
                "parentTheme": false,
                "template": "twentytwentyfour",
                "stylesheet": "twentytwentyfour",
                "description": "Twenty Twenty-Four is designed to be flexible, versatile and applicable to any website. Its collection of templates and patterns tailor to different needs, such as presenting a business, blogging and writing or showcasing work. A multitude of possibilities open up with just a few adjustments to color and typography. Twenty Twenty-Four comes with style variations and full page designs to help speed up the site building process, is fully compatible with the site editor, and takes advantage of new design tools introduced in WordPress 6.4.",
                "author": "the WordPress team",
                "authorURI": "https:\/\/wordpress.org",
                "tags": [
                    "one-column",
                    "custom-colors",
                    "custom-menu",
                    "custom-logo",
                    "editor-style",
                    "featured-images",
                    "full-site-editing",
                    "block-patterns",
                    "rtl-language-support",
                    "sticky-post",
                    "threaded-comments",
                    "translation-ready",
                    "wide-blocks",
                    "block-styles",
                    "style-variations",
                    "accessibility-ready",
                    "blog",
                    "portfolio",
                    "news"
                ],
                "isAllowed": true,
                "isActive": false,
                "defaultTheme": true
            }
        }
    },
    "defaultStorageId": 13,
    "components": [
        "package_component_db"
    ],
    "opts_delete": [
        "duplicator_pro_ui_view_state",
        "duplicator_pro_package_active",
        "duplicator_pro_settings"
    ],
    "brand": {
        "name": "Duplicator Professional",
        "isDefault": true,
        "logo": "<i class=\"fa fa-bolt fa-sm\"><\/i> Duplicator Pro",
        "enabled": false,
        "style": []
    },
    "overwriteInstallerParams": {
        "dbhost": {
            "value": "localhost\/laniakea-ro-wiki"
        },
        "dbname": {
            "value": "tee_laniakea_wiki"
        },
        "dbuser": {
            "value": "root"
        },
        "cpnl-dbaction": {
            "value": "create"
        }
    },
    "installer_base_name": "installer.php",
    "installer_backup_name": "20241008_wikiragnarokonlinevietnam_3c177d44b38e070f2425_20241008082547_installer-backup.php",
    "package_name": "20241008_wikiragnarokonlinevietnam_3c177d44b38e070f2425_20241008082547_archive.zip",
    "package_hash": "3c177d4-08082547",
    "package_notes": "The default template."
}